{
  "owner": "MULE",
  "drops": [
    {
      "material": "LEATHER",
      "functionList": [
        {
          "type": "SET_COUNT",
          "max": 2,
          "min": 0
        },
        {
          "type": "LOOTING_ENCHANT",
          "max": 1,
          "min": 0
        }
      ]
    }
  ]
}