{
  "owner": "MUSHROOM_COW",
  "drops": [
    {
      "material": "LEATHER",
      "functionList": [
        {
          "type": "SET_COUNT",
          "max": 2,
          "min": 0
        },
        {
          "type": "LOOTING_ENCHANT",
          "max": 1,
          "min": 0
        }
      ]
    },
    {
      "material": "BEEF",
      "functionList": [
        {
          "type": "SET_COUNT",
          "max": 3,
          "min": 1
        },
        {
          "type": "LOOTING_ENCHANT",
          "max": 1,
          "min": 0
        }
      ]
    }
  ]
}