{
  "owner": "PARROT",
  "drops": [
    {
      "material": "FEATHER",
      "functionList": [
        {
          "type": "SET_COUNT",
          "max": 2,
          "min": 1
        },
        {
          "type": "LOOTING_ENCHANT",
          "max": 1,
          "min": 0
        }
      ]
    }
  ]
}