{
  "owner": "SKELETON",
  "drops": [
    {
      "material": "ARROW",
      "functionList": [
        {
          "type": "SET_COUNT",
          "max": 2,
          "min": 0
        },
        {
          "type": "LOOTING_ENCHANT",
          "max": 1,
          "min": 0
        }
      ]
    },
    {
      "material": "BONE",
      "functionList": [
        {
          "type": "SET_COUNT",
          "max": 2,
          "min": 0
        },
        {
          "type": "LOOTING_ENCHANT",
          "max": 1,
          "min": 0
        }
      ]
    }
  ]
}